Exploring wine data
…
Well use these packages :

library( "billboarder" )
library( "eurostat" )
library( "dplyr" )
library( "tidyr" )

Get the data :

eu_wine <- get_eurostat(id = "apro_cpb_wine", time_format = "num")
eu_wine <- label_eurostat(eu_wine)
eu_wine

## # A tibble: 160,791 x 5
##        prod_bal                      bal_item
##           <chr>                         <chr>
##  1 Wine - Total Official production (1000 hl)
##  2 Wine - Total Official production (1000 hl)
##  3 Wine - Total Official production (1000 hl)
##  4 Wine - Total Official production (1000 hl)
##  5 Wine - Total Official production (1000 hl)
##  6 Wine - Total Official production (1000 hl)
##  7 Wine - Total Official production (1000 hl)
##  8 Wine - Total Official production (1000 hl)
##  9 Wine - Total Official production (1000 hl)
## 10 Wine - Total Official production (1000 hl)
## # ... with 160,781 more rows, and 3 more variables: geo <chr>, time <dbl>,
## #   values <dbl>
…
